…
# Print the recommendations
optimal_params[1:4]
#> $best_cap
#> [1] 102
#> 
#> $retained_points
#> [1] 4993
#> 
#> $search_results
#> # A tibble: 586 × 2
#>      cap thinned_count
#>    <int>         <int>
#>  1     1           435
#>  2     2           545
#>  3     3           628
#>  4     4           704
#>  5     5           774
#>  6     6           843
#>  7     7           911
#>  8     8           979
#>  9     9          1047
#> 10    10          1115
#> # ℹ 576 more rows
…
